{
    "nodes":{
        "M":{
            "name":"Revenu mensuel inférieur à 2099 euros pas mois",
            "var_table":"M",
            "table":[
                {"True":0.63},
                {"False":0.37}
            ]
        },
        "H":{
            "name":"L'individu est un homme",
            "var_table":"H",
            "table":[
                {"True":0.48355},
                {"False":0.51645}
            ]
        },
        "O":{
            "name":"L'individu est obèse",
            "var_table":"OMH",
            "table":[
                {"True,True,True":0.374},
                {"True,True,False":0.493},
                {"True,False,True":0.91},
                {"True,False,False":0.07},
                {"False,True,True":0.626},
                {"False,True,False":0.507},
                {"False,False,True":0.09},
                {"False,False,False":0.93}
            ]
        },
        "A":{
            "name":"Age supérieur à 65 ans",
            "var_table":"A",
            "table":[
                {"True":0.2},
                {"False":0.8}
            ]
        },
        "F":{
            "name":"L'individu est fumeur",
            "var_table":"F",
            "table":[
                {"True":0.239},
                {"False":0.761}
            ]
        },
        "T":{
            "name":"Hypertension artérielle",
            "var_table":"TFOA",
            "table":[
                {"True,True,True,True":0.73},
                {"True,True,True,False":0.44},
                {"True,True,False,True":0.49},
                {"True,True,False,False":0.25},
                {"True,False,True,True":0.51},
                {"True,False,True,False":0.41},
                {"True,False,False,True":0.65},
                {"True,False,False,False":0.09},
                {"False,True,True,True":0.27},
                {"False,True,True,False":0.56},
                {"False,True,False,True":0.51},
                {"False,True,False,False":0.75},
                {"False,False,True,True":0.49},
                {"False,False,True,False":0.59},
                {"False,False,False,True":0.35},
                {"False,False,False,False":0.91}
            ]
        },
        "D":{
            "name":"Décés de l'individu",
            "var_table":"DTS",
            "table":[
                {"True,True,True":0.42},
                {"True,True,False":0.17},
                {"True,False,True":0.05},
                {"True,False,False":0.03},
                {"False,True,True":0.58},
                {"False,True,False":0.83},
                {"False,False,True":0.95},
                {"False,False,False":0.97}
            ]
        },
        "S":{
            "name":"L'individu est suicidaire",
            "var_table":"S",
            "table":[
                {"True":0.07},
                {"False":0.93}
            ]
        }
    }
}
